[gd_scene load_steps=8 format=2]

[sub_resource type="ProceduralSky" id=3]

[sub_resource type="Environment" id=2]
background_mode = 2
background_sky = SubResource( 3 )
background_color = Color( 0.745098, 0.956863, 1, 1 )

[sub_resource type="ParticlesMaterial" id=4]
spread = 180.0
gravity = Vector3( 0, 0, 0 )
initial_velocity = 1.0
damping = 0.9
scale = 0.1

[sub_resource type="SpatialMaterial" id=8]
flags_transparent = true
flags_unshaded = true
albedo_color = Color( 0.878431, 0.878431, 0.878431, 0.227451 )

[sub_resource type="SphereMesh" id=6]
material = SubResource( 8 )

[sub_resource type="CapsuleMesh" id=5]

[sub_resource type="SpatialMaterial" id=7]
flags_transparent = true
albedo_color = Color( 0.607843, 1, 0.580392, 1 )

[node name="Spatial" type="Spatial"]

[node name="WorldEnvironment" type="WorldEnvironment" parent="."]
environment = SubResource( 2 )

[node name="Particles" type="Particles" parent="."]
amount = 32
lifetime = 2.0
speed_scale = 0.5
process_material = SubResource( 4 )
draw_pass_1 = SubResource( 6 )

[node name="MeshInstance" type="MeshInstance" parent="."]
transform = Transform( 0.253798, 0, 0, 0, 0.273639, 0, 0, 0, 0.170295, 0, 0, 0 )
mesh = SubResource( 5 )
material/0 = SubResource( 7 )

[node name="Camera" type="Camera" parent="."]
transform = Transform( 0.848261, 0.0713674, 0.524748, 0.000526119, 0.990764, -0.135597, -0.529579, 0.115298, 0.840389, 0.746114, 0.143682, 1.10311 )
